EESchema Schematic File Version 4
EELAYER 30 0
EELAYER END
$Descr A4 11693 8268
encoding utf-8
Sheet 1 1
Title ""
Date ""
Rev ""
Comp ""
Comment1 ""
Comment2 ""
Comment3 ""
Comment4 ""
$EndDescr
$Comp
L power:+9V #PWR01
U 1 1 616D8ECC
P 1900 1600
F 0 "#PWR01" H 1900 1450 50  0001 C CNN
F 1 "+9V" H 1915 1773 50  0000 C CNN
F 2 "" H 1900 1600 50  0001 C CNN
F 3 "" H 1900 1600 50  0001 C CNN
	1    1900 1600
	1    0    0    -1  
$EndComp
$Comp
L Device:R R1
U 1 1 616DAD97
P 950 2000
F 0 "R1" H 1020 2046 50  0000 L CNN
F 1 "1K" H 1020 1955 50  0000 L CNN
F 2 "Resistor_THT:R_Axial_DIN0614_L14.3mm_D5.7mm_P20.32mm_Horizontal" V 880 2000 50  0001 C CNN
F 3 "~" H 950 2000 50  0001 C CNN
	1    950  2000
	1    0    0    -1  
$EndComp
$Comp
L Device:R R4
U 1 1 616DB9FC
P 3000 1950
F 0 "R4" H 2800 2000 50  0000 L CNN
F 1 "1K" H 2800 1900 50  0000 L CNN
F 2 "Resistor_THT:R_Axial_DIN0614_L14.3mm_D5.7mm_P20.32mm_Horizontal" V 2930 1950 50  0001 C CNN
F 3 "~" H 3000 1950 50  0001 C CNN
	1    3000 1950
	1    0    0    -1  
$EndComp
$Comp
L Device:LED D1
U 1 1 616DCA6C
P 950 2600
F 0 "D1" V 989 2482 50  0000 R CNN
F 1 "LED" V 898 2482 50  0000 R CNN
F 2 "LED_THT:LED_D5.0mm" H 950 2600 50  0001 C CNN
F 3 "~" H 950 2600 50  0001 C CNN
	1    950  2600
	0    -1   -1   0   
$EndComp
$Comp
L Device:LED D2
U 1 1 616DD0F5
P 3000 2600
F 0 "D2" V 3050 2850 50  0000 R CNN
F 1 "LED" V 2950 2850 50  0000 R CNN
F 2 "LED_THT:LED_D5.0mm" H 3000 2600 50  0001 C CNN
F 3 "~" H 3000 2600 50  0001 C CNN
	1    3000 2600
	0    -1   -1   0   
$EndComp
Wire Wire Line
	3000 1750 3000 1800
Wire Wire Line
	950  1850 950  1750
Wire Wire Line
	950  2450 950  2150
Wire Wire Line
	3000 2450 3000 2100
$Comp
L Transistor_BJT:PN2222A Q1
U 1 1 616E956C
P 1050 3200
F 0 "Q1" H 750 3250 50  0000 L CNN
F 1 "PN2222A" H 600 3100 50  0000 L CNN
F 2 "Package_TO_SOT_THT:TO-92_Inline" H 1250 3125 50  0001 L CIN
F 3 "https://www.onsemi.com/pub/Collateral/PN2222-D.PDF" H 1050 3200 50  0001 L CNN
	1    1050 3200
	-1   0    0    -1  
$EndComp
$Comp
L Transistor_BJT:PN2222A Q2
U 1 1 616EA4A4
P 2900 3200
F 0 "Q2" H 2550 3250 50  0000 L CNN
F 1 "PN2222A" H 2450 3100 50  0000 L CNN
F 2 "Package_TO_SOT_THT:TO-92_Inline" H 3100 3125 50  0001 L CIN
F 3 "https://www.onsemi.com/pub/Collateral/PN2222-D.PDF" H 2900 3200 50  0001 L CNN
	1    2900 3200
	1    0    0    -1  
$EndComp
Wire Wire Line
	950  2750 950  2850
Wire Wire Line
	3000 2750 3000 2850
$Comp
L power:Earth #PWR02
U 1 1 616ED4F3
P 1900 3800
F 0 "#PWR02" H 1900 3550 50  0001 C CNN
F 1 "Earth" H 1900 3650 50  0001 C CNN
F 2 "" H 1900 3800 50  0001 C CNN
F 3 "~" H 1900 3800 50  0001 C CNN
	1    1900 3800
	1    0    0    -1  
$EndComp
Wire Wire Line
	950  3400 950  3700
Wire Wire Line
	3000 3400 3000 3700
$Comp
L Device:CP C1
U 1 1 616EEC15
P 1600 2850
F 0 "C1" V 1550 2650 50  0000 C CNN
F 1 "470uF" V 1650 2650 50  0000 C CNN
F 2 "Capacitor_THT:CP_Radial_D12.5mm_P5.00mm" H 1638 2700 50  0001 C CNN
F 3 "~" H 1600 2850 50  0001 C CNN
	1    1600 2850
	0    1    1    0   
$EndComp
Wire Wire Line
	950  1750 1750 1750
Wire Wire Line
	950  3700 1900 3700
Wire Wire Line
	1900 3800 1900 3700
Connection ~ 1900 3700
Wire Wire Line
	1900 3700 3000 3700
$Comp
L Device:CP C2
U 1 1 616FF44F
P 2250 2850
F 0 "C2" V 2200 2700 50  0000 C CNN
F 1 "470uF" V 2300 2650 50  0000 C CNN
F 2 "Capacitor_THT:CP_Radial_D12.5mm_P5.00mm" H 2288 2700 50  0001 C CNN
F 3 "~" H 2250 2850 50  0001 C CNN
	1    2250 2850
	0    -1   1    0   
$EndComp
Wire Wire Line
	2400 2850 3000 2850
Connection ~ 3000 2850
Wire Wire Line
	3000 2850 3000 3000
Wire Wire Line
	1450 2850 950  2850
Connection ~ 950  2850
Wire Wire Line
	950  2850 950  3000
Wire Wire Line
	2100 2850 1700 3200
Wire Wire Line
	1700 3200 1250 3200
Wire Wire Line
	1750 2850 2050 3200
Wire Wire Line
	2050 3200 2700 3200
$Comp
L Device:R R2
U 1 1 617074F3
P 1750 2250
F 0 "R2" H 1550 2300 50  0000 L CNN
F 1 "10K" H 1550 2200 50  0000 L CNN
F 2 "Resistor_THT:R_Axial_DIN0614_L14.3mm_D5.7mm_P20.32mm_Horizontal" V 1680 2250 50  0001 C CNN
F 3 "~" H 1750 2250 50  0001 C CNN
	1    1750 2250
	1    0    0    -1  
$EndComp
$Comp
L Device:R R3
U 1 1 61707A3A
P 2100 2250
F 0 "R3" H 2170 2296 50  0000 L CNN
F 1 "10K" H 2170 2205 50  0000 L CNN
F 2 "Resistor_THT:R_Axial_DIN0614_L14.3mm_D5.7mm_P20.32mm_Horizontal" V 2030 2250 50  0001 C CNN
F 3 "~" H 2100 2250 50  0001 C CNN
	1    2100 2250
	1    0    0    -1  
$EndComp
Wire Wire Line
	1750 2400 1750 2850
Connection ~ 1750 2850
Wire Wire Line
	1750 2100 1750 1750
Connection ~ 1750 1750
Wire Wire Line
	2100 2400 2100 2850
Connection ~ 2100 2850
Wire Wire Line
	2100 2100 2100 1750
Connection ~ 2100 1750
Wire Wire Line
	2100 1750 3000 1750
Wire Wire Line
	1750 1750 1900 1750
Wire Wire Line
	1900 1600 1900 1750
Connection ~ 1900 1750
Wire Wire Line
	1900 1750 2100 1750
$EndSCHEMATC
